{
    "name": "Ulesson Clone theme",
    "active": true,
    "image_url": "image.png",
    "index_url": "index.liquid",
    "config_url": "config.json",
    "template_groups": [],
    "template_group_layouts": []
  }
  