<svg width="16" height="12" viewBox="0 0 16 12" fill="none" xmlns="http://www.w3.org/2000/svg">
<path d="M0 0H16V12H0V0Z" fill="#006B3F"/>
<path d="M0 0H16V8H0V0Z" fill="#FCD116"/>
<path d="M0 0H16V4H0V0Z" fill="#CE1126"/>
<path d="M7.99996 4L9.29996 8L5.89746 5.5275H10.1L6.69996 8L7.99996 4Z" fill="black"/>
</svg>
