<svg width="16" height="12" viewBox="0 0 16 12" fill="none" xmlns="http://www.w3.org/2000/svg">
<g clip-path="url(#clip0_4705_1591)">
<path fill-rule="evenodd" clip-rule="evenodd" d="M0 0H17.9977V12H0V0Z" fill="white"/>
<path fill-rule="evenodd" clip-rule="evenodd" d="M0 0H5.45391V5.45625H0V0Z" fill="#000066"/>
<path fill-rule="evenodd" clip-rule="evenodd" d="M0 10.896H17.9977V11.9999H0V10.896Z" fill="#CC0000"/>
<path fill-rule="evenodd" clip-rule="evenodd" d="M0 10.9078H17.9977V12H0V10.9078ZM0 8.73047H17.9977V9.81328H0V8.73047ZM0 6.54609H17.9531V7.64062H0V6.54609ZM5.45391 0H17.9953V1.08984H5.45391V0ZM5.45391 4.35938H17.9953V5.45625H5.45391V4.35938ZM5.45391 2.18672H17.9953V3.27656H5.45391V2.18672Z" fill="#CC0000"/>
<path fill-rule="evenodd" clip-rule="evenodd" d="M3.89776 4.16006L2.70947 3.4335L1.52822 4.16709L1.9665 2.97412L0.787598 2.23818L2.24775 2.22881L2.7001 1.04053L3.16416 2.22646H4.62432L3.4501 2.96943L3.89776 4.16006Z" fill="white"/>
</g>
<defs>
<clipPath id="clip0_4705_1591">
<rect width="16" height="12" fill="white"/>
</clipPath>
</defs>
</svg>
